<svg width="6" height="8" viewBox="0 0 6 8" fill="none" xmlns="http://www.w3.org/2000/svg">
<path d="M1.9257 4.00001L5.03695 7.11127L4.1482 8.00002L0.148193 4.00001L4.1482 0L5.03695 0.888751L1.9257 4.00001Z" fill="white" fill-opacity="0.5"/>
</svg>
