<svg width="6" height="8" viewBox="0 0 6 8" fill="none" xmlns="http://www.w3.org/2000/svg">
<path d="M4.07406 4.00001L0.962801 7.11127L1.85155 8.00002L5.85156 4.00001L1.85155 0L0.962801 0.888751L4.07406 4.00001Z" fill="white" fill-opacity="0.5"/>
</svg>
